Universitaet Karlsruhe / Rechenzentrum   +++ hc3 +++   JMS 2.3 / slurm 1.2.25
Job 389804 has been submitted at 01.11.2011/23:55:19 on hc3n996
Command: job_submit -t 30 -m 200 -p 8 -c p mpirun caseq-slow 512 800 0 hc3n996:16.0
Job 389804 started at 01.11.2011/23:55:31 on hc3n6
8 tasks running on 1 nodes exclusive: 8*hc3n6
================================================================================
1353411654.081733 cells per second 
1353403324.420702 cells per second 
1353367924.505147 cells per second 
1353367924.505147 cells per second 
1353367924.505147 cells per second 
1353367924.505147 cells per second 
1352922460.368374 cells per second 
1353376253.730438 cells per second 
================================================================================
Job 389804 completed at 01.11.2011/23:55:35 (COMPLETED)
