Universitaet Karlsruhe / Rechenzentrum   +++ hc3 +++   JMS 2.3 / slurm 1.2.25
Job 392815 has been submitted at 16.11.2011/11:45:34 on hc3n996
Command: job_submit -t 30 -m 200 -p 4 -c p -d t mpirun kLinesNonBlocking 256 100 0 hc3n996:49.0 10
Job 392815 started at 16.11.2011/11:46:57 on hc3n223
4 tasks running on 1 nodes shared: 4*hc3n223
================================================================================
103012.257137M cells per second 
100533.211522M cells per second 
100547.921188M cells per second 
98153.153703M cells per second 
Pruned Average Time of all PEs: 655.025 us in 10 iterations
================================================================================
Job 392815 completed at 16.11.2011/11:47:01 (COMPLETED)
