Universitaet Karlsruhe / Rechenzentrum   +++ hc3 +++   JMS 2.3 / slurm 1.2.25
Job 392805 has been submitted at 16.11.2011/11:44:06 on hc3n996
Command: job_submit -t 30 -m 200 -p 4 -c p -d t mpirun kLinesNonBlocking 256 100 0 hc3n996:49.0 1
Job 392805 started at 16.11.2011/11:44:08 on hc3n84
4 tasks running on 1 nodes shared: 4*hc3n84
================================================================================
1099423.673882M cells per second 
Pruned Average Time of all PEs: 54.3261 us in 100 iterations
1110214.091619M cells per second 
1116436.809813M cells per second 
1105703.567755M cells per second 
================================================================================
Job 392805 completed at 16.11.2011/11:44:11 (COMPLETED)
