1 290.973 # time[us] 15000 trials
2 131.703 # time[us] 15000 trials
4 66.3262 # time[us] 15000 trials
8 33.5104 # time[us] 15000 trials
16 17.6451 # time[us] 15000 trials
32 10.4904 # time[us] 15000 trials
