Universitaet Karlsruhe / Rechenzentrum   +++ hc3 +++   JMS 2.3 / slurm 1.2.25
Job 389796 has been submitted at 01.11.2011/23:52:47 on hc3n996
Command: job_submit -t 30 -m 200 -p 4 -c p mpirun caseq-slow 512 800 0 hc3n996:16.0
Job 389796 started at 01.11.2011/23:52:49 on hc3n8
4 tasks running on 1 nodes shared: 4*hc3n8
================================================================================
814560911.510320 cells per second 
814554876.971473 cells per second 
814459844.777225 cells per second 
814557894.229720 cells per second 
================================================================================
Job 389796 completed at 01.11.2011/23:52:52 (COMPLETED)
