\relax 
\@writefile{toc}{\contentsline {chapter}{\numberline {1}Lastverteilung}{1}{chapter.1}}
\@writefile{lof}{\addvspace {10\p@ }}
\@writefile{lot}{\addvspace {10\p@ }}
\@writefile{lol}{\addvspace {10\p@ }}
\@writefile{lis}{\addvspace {10\p@ }}
\newlabel{cha:aufgabe5}{{1}{1}{Lastverteilung\relax }{chapter.1}{}}
\providecommand*\caption@xref[2]{\@setref\relax\@undefined{#1}}
\newlabel{fig:05:init:a}{{1.1a}{2}{Subfigure 1 1.1a\relax }{subfigure.1.1.1}{}}
\newlabel{sub@fig:05:init:a}{{(a)}{a}{Subfigure 1 1.1a\relax }{subfigure.1.1.1}{}}
\newlabel{fig:05:b}{{1.1b}{2}{Subfigure 1 1.1b\relax }{subfigure.1.1.2}{}}
\newlabel{sub@fig:05:b}{{(b)}{b}{Subfigure 1 1.1b\relax }{subfigure.1.1.2}{}}
\@writefile{lof}{\contentsline {figure}{\numberline {1.1}{\ignorespaces Berechnete Mandelbrotmenge mit zwei verschiedenen Konfigurationen\relax }}{2}{figure.caption.2}}
\@writefile{lof}{\contentsline {subfigure}{\numberline{(a)}{\ignorespaces {$z_0 = -1.5 - i, a_0 = 2$}}}{2}{subfigure.1.1}}
\@writefile{lof}{\contentsline {subfigure}{\numberline{(b)}{\ignorespaces {$z_0 = -0.5 + 0.82i, a_0 = 0.45$}}}{2}{subfigure.1.2}}
\newlabel{fig:05:init}{{1.1}{2}{Berechnete Mandelbrotmenge mit zwei verschiedenen Konfigurationen\relax \relax }{figure.caption.2}{}}
\@writefile{toc}{\contentsline {section}{\numberline {1.1}Statische Lastverteilung}{2}{section.1.1}}
\newlabel{sec:statischeLastverteilung}{{1.1}{2}{Statische Lastverteilung\relax }{section.1.1}{}}
\@writefile{toc}{\contentsline {subsection}{\numberline {1.1.1}Streifenzerlegung}{2}{subsection.1.1.1}}
\newlabel{sub:streifenZerlegung}{{1.1.1}{2}{Streifenzerlegung\relax }{subsection.1.1.1}{}}
\@writefile{toc}{\contentsline {subsection}{\numberline {1.1.2}Scatter-Decomposition}{2}{subsection.1.1.2}}
\newlabel{sub:scatterDecomposition}{{1.1.2}{2}{Scatter-Decomposition\relax }{subsection.1.1.2}{}}
\@writefile{lof}{\contentsline {figure}{\numberline {1.2}{\ignorespaces Laufzeit bei streifenweiser Zerlegung (links: 1PE, rechts: 4PEs, y-Achse in $\mu $s)\relax }}{3}{figure.caption.3}}
\newlabel{fig:05:streifenweise}{{1.2}{3}{Laufzeit bei streifenweiser Zerlegung (links: 1PE, rechts: 4PEs, y-Achse in $\mu $s)\relax \relax }{figure.caption.3}{}}
\@writefile{lof}{\contentsline {figure}{\numberline {1.3}{\ignorespaces Laufzeit Scatter-Decomposition vs. Rundenaufteilung \relax \fontsize  {10}{12}\selectfont  \par@update \abovedisplayskip 10\p@ plus2\p@ minus5\p@ \abovedisplayshortskip \z@ plus3\p@ \belowdisplayshortskip 6\p@ plus3\p@ minus3\p@ \def \leftmargin \leftmargini \parsep 5\p@ plus2.5\p@ minus\p@ \topsep 10\p@ plus4\p@ minus6\p@ \itemsep 5\p@ plus2.5\p@ minus\p@ {\leftmargin \leftmargini \topsep 6\p@ plus2\p@ minus2\p@ \parsep 3\p@ plus2\p@ minus\p@ \itemsep \parsep }\belowdisplayskip \abovedisplayskip \add@extra@listi {ftns}{(y-Achse in $\mu $s)}\relax }}{3}{figure.caption.4}}
\newlabel{fig:05:rundenweise}{{1.3}{3}{Laufzeit Scatter-Decomposition vs. Rundenaufteilung \footnotesize {(y-Achse in $\mu $s)}\relax \relax }{figure.caption.4}{}}
\@writefile{toc}{\contentsline {section}{\numberline {1.2}Master-Worker-Schema}{3}{section.1.2}}
\newlabel{sec:masterWorkerSchema}{{1.2}{3}{Master-Worker-Schema\relax }{section.1.2}{}}
\@setckpt{kapitel/aufgabe5}{
\setcounter{page}{5}
\setcounter{equation}{0}
\setcounter{enumi}{0}
\setcounter{enumii}{0}
\setcounter{enumiii}{0}
\setcounter{enumiv}{0}
\setcounter{footnote}{0}
\setcounter{mpfootnote}{0}
\setcounter{part}{0}
\setcounter{chapter}{1}
\setcounter{section}{2}
\setcounter{subsection}{0}
\setcounter{subsubsection}{0}
\setcounter{paragraph}{0}
\setcounter{subparagraph}{0}
\setcounter{figure}{3}
\setcounter{table}{0}
\setcounter{lstnumber}{1}
\setcounter{NAT@ctr}{0}
\setcounter{float@type}{16}
\setcounter{cp@cnt}{0}
\setcounter{cp@tempcnt}{0}
\setcounter{LT@tables}{0}
\setcounter{LT@chunks}{0}
\setcounter{ContinuedFloat}{0}
\setcounter{KVtest}{0}
\setcounter{subfigure}{0}
\setcounter{subfigure@save}{2}
\setcounter{lofdepth}{1}
\setcounter{subtable}{0}
\setcounter{subtable@save}{0}
\setcounter{lotdepth}{1}
\setcounter{parentequation}{0}
\setcounter{Item}{0}
\setcounter{Hfootnote}{0}
\setcounter{bookmark@seq@number}{5}
\setcounter{Listing}{0}
\setcounter{lstlisting}{0}
\setcounter{section@level}{1}
}
