8 0.239756 31.8215 # length[B], time[us], bandwidth [MiB/s] 19968 trials, PE: 2
16 0.130355 117.055 # length[B], time[us], bandwidth [MiB/s] 19936 trials, PE: 2
32 0.118489 257.555 # length[B], time[us], bandwidth [MiB/s] 19872 trials, PE: 2
64 0.226323 269.682 # length[B], time[us], bandwidth [MiB/s] 19747 trials, PE: 2
128 0.264632 461.283 # length[B], time[us], bandwidth [MiB/s] 19500 trials, PE: 2
256 0.302303 807.603 # length[B], time[us], bandwidth [MiB/s] 19025 trials, PE: 2
512 0.368193 1326.16 # length[B], time[us], bandwidth [MiB/s] 18142 trials, PE: 2
1024 0.476837 2048 # length[B], time[us], bandwidth [MiB/s] 16600 trials, PE: 2
2048 1.01239 1929.23 # length[B], time[us], bandwidth [MiB/s] 14188 trials, PE: 2
4096 1.65353 2362.37 # length[B], time[us], bandwidth [MiB/s] 10993 trials, PE: 2
8192 2.76169 2828.88 # length[B], time[us], bandwidth [MiB/s] 7580 trials, PE: 2
16384 5.14395 3037.55 # length[B], time[us], bandwidth [MiB/s] 4676 trials, PE: 2
32768 9.94151 3143.38 # length[B], time[us], bandwidth [MiB/s] 2647 trials, PE: 2
65536 17.1544 3643.39 # length[B], time[us], bandwidth [MiB/s] 1417 trials, PE: 2
131072 44.4003 2815.3 # length[B], time[us], bandwidth [MiB/s] 734 trials, PE: 2
262144 85.357 2928.87 # length[B], time[us], bandwidth [MiB/s] 374 trials, PE: 2
524288 209.78 2383.44 # length[B], time[us], bandwidth [MiB/s] 188 trials, PE: 2
1048576 387.52 2580.51 # length[B], time[us], bandwidth [MiB/s] 94 trials, PE: 2
2097152 767.937 2604.38 # length[B], time[us], bandwidth [MiB/s] 47 trials, PE: 2
4194304 1455.93 2747.38 # length[B], time[us], bandwidth [MiB/s] 23 trials, PE: 2
8388608 2824.82 2832.04 # length[B], time[us], bandwidth [MiB/s] 11 trials, PE: 2
