8 0.485362 15.719 # length[B], time[us], bandwidth [MiB/s] 19968 trials, PE: 1
16 0.476837 32 # length[B], time[us], bandwidth [MiB/s] 19936 trials, PE: 1
32 0.48238 63.2646 # length[B], time[us], bandwidth [MiB/s] 19872 trials, PE: 1
64 0.482571 126.479 # length[B], time[us], bandwidth [MiB/s] 19747 trials, PE: 1
128 0.546859 223.221 # length[B], time[us], bandwidth [MiB/s] 19500 trials, PE: 1
256 0.578941 421.702 # length[B], time[us], bandwidth [MiB/s] 19025 trials, PE: 1
512 0.616375 792.183 # length[B], time[us], bandwidth [MiB/s] 18142 trials, PE: 1
1024 1.00798 968.832 # length[B], time[us], bandwidth [MiB/s] 16600 trials, PE: 1
2048 1.50022 1301.9 # length[B], time[us], bandwidth [MiB/s] 14188 trials, PE: 1
4096 2.03931 1915.48 # length[B], time[us], bandwidth [MiB/s] 10993 trials, PE: 1
8192 3.3623 2323.56 # length[B], time[us], bandwidth [MiB/s] 7580 trials, PE: 1
16384 6.07101 2573.71 # length[B], time[us], bandwidth [MiB/s] 4676 trials, PE: 1
32768 10.6369 2937.89 # length[B], time[us], bandwidth [MiB/s] 2647 trials, PE: 1
65536 18.3234 3410.93 # length[B], time[us], bandwidth [MiB/s] 1417 trials, PE: 1
131072 42.2017 2961.97 # length[B], time[us], bandwidth [MiB/s] 734 trials, PE: 1
262144 82.6805 3023.69 # length[B], time[us], bandwidth [MiB/s] 374 trials, PE: 1
524288 150.295 3326.79 # length[B], time[us], bandwidth [MiB/s] 188 trials, PE: 1
1048576 294.988 3389.96 # length[B], time[us], bandwidth [MiB/s] 94 trials, PE: 1
2097152 645.919 3096.36 # length[B], time[us], bandwidth [MiB/s] 47 trials, PE: 1
4194304 1310.3 3052.73 # length[B], time[us], bandwidth [MiB/s] 23 trials, PE: 1
8388608 2473.93 3233.72 # length[B], time[us], bandwidth [MiB/s] 11 trials, PE: 1
