Universitaet Karlsruhe / Rechenzentrum   +++ hc3 +++   JMS 2.3 / slurm 1.2.25
Job 389814 has been submitted at 01.11.2011/23:56:22 on hc3n996
Command: job_submit -t 30 -m 200 -p 16 -c p mpirun caseq-slow 2048 800 0 hc3n996:16.0
Job 389814 started at 01.11.2011/23:56:54 on hc3n82
16 tasks running on 2 nodes exclusive: 8*hc3n[82-83]
================================================================================
1944507839.727471 cells per second 
1944521810.359841 cells per second 
1944507839.727471 cells per second 
1944507839.727471 cells per second 
1944507839.727471 cells per second 
1944507839.727471 cells per second 
1944507839.727471 cells per second 
1944507839.727471 cells per second 
1944507839.727471 cells per second 
1945798283.111762 cells per second 
1945798283.111762 cells per second 
1945788598.411708 cells per second 
1945793978.788725 cells per second 
1945779989.870371 cells per second 
1945788598.411708 cells per second 
1945771381.405205 cells per second 
================================================================================
Job 389814 completed at 01.11.2011/23:56:58 (COMPLETED)
