1 5.96046 4811.705549#PEs time[us] MFlops, k=50000
4 3.04958 9404.563151# time[us] MFlops, k=50000
9 6.0784 4718.350160# time[us] MFlops, k=50000
16 7.35897 3897.284198# time[us] MFlops, k=50000
25 8.62161 3326.525676# time[us] MFlops, k=90000
36 7.52755 3810.003295# time[us] MFlops, k=64000