1 3317.28 2221.967662# time[us] MFlops, k=1000
4 1368 5388.065830# time[us] MFlops, k=1500
9 548.379 13441.204601# time[us] MFlops, k=5000
16 143.692 51296.480141# time[us] MFlops, k=10000
25 118.692 62100.841225# time[us] MFlops, k=10000
36 79.25 93007.928634# time[us] MFlops, k=15000